%YAML 1.1
%TAG !u! tag:unity3d.com,2011:
--- !u!114 &11400000
MonoBehaviour:
  m_ObjectHideFlags: 0
  m_PrefabParentObject: {fileID: 0}
  m_PrefabInternal: {fileID: 0}
  m_GameObject: {fileID: 0}
  m_Enabled: 1
  m_EditorHideFlags: 0
  m_Script: {fileID: 11500000, guid: 487b78157881a2342b1ecb5495b2e5d0, type: 3}
  m_Name: HMS Goliath
  m_EditorClassIdentifier: 
  name: HMS Goliath
  deck: D
  shortName: 
  burden: 5
  veer: 5
  damageBoxes:
  - frontBroadside: 4
    fullBroadside: 6
    rearBroadside: 4
    crewActions: 4
    numberOfCrew: 3
  - frontBroadside: 4
    fullBroadside: 6
    rearBroadside: 4
    crewActions: 4
    numberOfCrew: 3
  - frontBroadside: 3
    fullBroadside: 5
    rearBroadside: 4
    crewActions: 4
    numberOfCrew: 3
  - frontBroadside: 3
    fullBroadside: 5
    rearBroadside: 3
    crewActions: 4
    numberOfCrew: 3
  - frontBroadside: 3
    fullBroadside: 4
    rearBroadside: 3
    crewActions: 3
    numberOfCrew: 2
  - frontBroadside: 2
    fullBroadside: 4
    rearBroadside: 3
    crewActions: 3
    numberOfCrew: 2
  - frontBroadside: 2
    fullBroadside: 3
    rearBroadside: 2
    crewActions: 3
    numberOfCrew: 2
  - frontBroadside: 1
    fullBroadside: 2
    rearBroadside: 1
    crewActions: 2
    numberOfCrew: 2
  - frontBroadside: 1
    fullBroadside: 1
    rearBroadside: 1
    crewActions: 2
    numberOfCrew: 1
  - frontBroadside: 0
    fullBroadside: 0
    rearBroadside: 0
    crewActions: 1
    numberOfCrew: 1
