%YAML 1.1
%TAG !u! tag:unity3d.com,2011:
--- !u!114 &11400000
MonoBehaviour:
  m_ObjectHideFlags: 0
  m_PrefabParentObject: {fileID: 0}
  m_PrefabInternal: {fileID: 0}
  m_GameObject: {fileID: 0}
  m_Enabled: 1
  m_EditorHideFlags: 0
  m_Script: {fileID: 11500000, guid: 1fa25b3ed8786d04c881204c1e648a88, type: 3}
  m_Name: Orange Damage 43
  m_EditorClassIdentifier: 
  type: 0
  isCrew: 0
  isMast: 0
  isFire: 0
  isLeak: 0
  isRudder: 0
  isSails: 0
  amount: 0
